{
  "images" : [
    {
        "filename" : "icon_aproximite.png",
        "idiom" : "universal",
        "scale" : "1x"
    },
    {
        "filename" : "icon_aproximite@2x.png",
        "idiom" : "universal",
        "scale" : "2x"
    },
    {
        "filename" : "icon_aproximite@3x.png",
        "idiom" : "universal",
        "scale" : "3x"
    }
  ],
  "info" : {
    "author" : "xcode",
    "version" : 1
  }
}
